…
## 修改因子水平

除了修改顺序，还可修改水平名称。最通用的工具是 `fct_recode()`。

例如，下面针对 `gss_cat` 数据集中的 `partyid`（政党倾向）变量进行研究：

```R
gss_cat |> count(partyid)
# A tibble: 10 × 2
partyid                n
<fct>              <int>
1 No answer            154
2 Don't know             1
3 Other party          393
4 Strong republican   2314
5 Not str republican  3032
6 Ind,near rep        1791
# ℹ 4 more rows
```
…
输出：

```R
# A tibble: 10 × 2
partyid                   n
<fct>                 <int>
1 No answer               154
2 Don't know                1
3 Other party             393
4 Republican, strong     2314
5 Republican, weak       3032
6 Independent, near rep  1791
# ℹ 4 more rows
```
…
能看出多数美国人是新教徒，但还想看到更多宗教的细分。那么此时要用到`fct_lump_n()`函数来限定分组数量，可以指定保留前 `n` 个最常见类别，其余合并为 "Other"：

```R
gss_cat |>
  mutate(relig = fct_lump_n(relig, n = 10)) |>
  count(relig, sort = TRUE)
```

输出示例：

```R
# A tibble: 10 × 2
relig          n
<fct>      <int>
1 Protestant 10846
2 Catholic    5124
3 None        3523
4 Christian    689
5 Other        458
6 Jewish       388
# ℹ 4 more rows
```
…
