…
`dplyr` 提供了六种连接函数：`left_join()`、`inner_join()`、`right_join()`、`full_join()`、`semi_join()` 和 `anti_join()`。它们的接口相同，都接受一对数据框（x 和 y），返回一个数据框。输出中的行和列顺序主要由 x 决定。

------------------------------------------------------------------------

1.  变形连接（mutating join）

变形连接可以将两个数据框中的变量合并。首先通过键匹配观测值，然后将一个数据框中的变量复制到另一个数据框中。

为了更容易观察连接的效果，下面构建一个包含六个变量的简化版 `flights` 数据集：

``` r
flights2 <- flights |>
  select(year, time_hour, origin, dest, tailnum, carrier)
flights2
#> # A tibble: 336,776 × 6
#>    year time_hour           origin dest  tailnum carrier
#>   <int> <dttm>              <chr>  <chr> <chr>   <chr>  
#> 1  2013 2013-01-01 05:00:00 EWR    IAH   N14228  UA     
#> 2  2013 2013-01-01 05:00:00 LGA    IAH   N24211  UA     
#> 3  2013 2013-01-01 05:00:00 JFK    MIA   N619AA  AA     
#> 4  2013 2013-01-01 05:00:00 JFK    BQN   N804JB  B6     
#> 5  2013 2013-01-01 06:00:00 LGA    ATL   N668DN  DL     
#> 6  2013 2013-01-01 05:00:00 EWR    ORD   N39463  UA     
#> # ℹ 336,770 more rows
```

变形连接最常用 `left_join()`函数，特点是其输出会保留被连接数据框（x）中的所有行。此函数的主要用途是添加元数据。例如，将航空公司全称`name`加入 `flights2`：

``` r
flights2 |>
  left_join(airlines)
#> Joining with `by = join_by(carrier)`
#> # A tibble: 336,776 × 7
#>    year time_hour           origin dest  tailnum carrier name                
#>   <int> <dttm>              <chr>  <chr> <chr>   <chr>   <chr>               
#> 1  2013 2013-01-01 05:00:00 EWR    IAH   N14228  UA      United Air Lines In…
#> 2  2013 2013-01-01 05:00:00 LGA    IAH   N24211  UA      United Air Lines In…
#> 3  2013 2013-01-01 05:00:00 JFK    MIA   N619AA  AA      American Airlines I…
#> 4  2013 2013-01-01 05:00:00 JFK    BQN   N804JB  B6      JetBlue Airways     
#> 5  2013 2013-01-01 06:00:00 LGA    ATL   N668DN  DL      Delta Air Lines Inc.
#> 6  2013 2013-01-01 05:00:00 EWR    ORD   N39463  UA      United Air Lines In…
#> # ℹ 336,770 more rows
```

当 `left_join()` 无法为被连接数据框 x 中的某行找到匹配值时，会在新变量中填充`NA`。例如，tailnum 为 `N3ALAA` 的飞机在 `planes` 中没有相关信息：

``` r
flights2 |> 
  filter(tailnum == "N3ALAA") |> 
  left_join(planes |> select(tailnum, type, engines, seats))
flights2 |> 
  filter(tailnum == "N3ALAA") |> 
  left_join(planes |> select(tailnum, type, engines, seats))
#> Joining with `by = join_by(tailnum)`
#> # A tibble: 63 × 9
#>    year time_hour           origin dest  tailnum carrier type  engines seats
#>   <int> <dttm>              <chr>  <chr> <chr>   <chr>   <chr>   <int> <int>
#> 1  2013 2013-01-01 06:00:00 LGA    ORD   N3ALAA  AA      <NA>       NA    NA
#> 2  2013 2013-01-02 18:00:00 LGA    ORD   N3ALAA  AA      <NA>       NA    NA
#> 3  2013 2013-01-03 06:00:00 LGA    ORD   N3ALAA  AA      <NA>       NA    NA
#> 4  2013 2013-01-07 19:00:00 LGA    ORD   N3ALAA  AA      <NA>       NA    NA
#> 5  2013 2013-01-08 17:00:00 JFK    ORD   N3ALAA  AA      <NA>       NA    NA
#> 6  2013 2013-01-16 06:00:00 LGA    ORD   N3ALAA  AA      <NA>       NA    NA
#> # ℹ 57 more rows
```
…
------------------------------------------------------------------------

2.  指定连接键（Specifying join keys）

默认情况下，`left_join()` 会使用两个数据框中都存在的变量作为连接键，但是如果变量名称相同而实际含义有区别，再使用这种方式显然不合理。例如，尝试将 `flights2` 与完整的 `planes` 数据集连接：

``` r
flights2 |> 
  left_join(planes)
#> Joining with `by = join_by(year, tailnum)`
#> # A tibble: 336,776 × 13
#>    year time_hour           origin dest  tailnum carrier type  manufacturer
#>   <int> <dttm>              <chr>  <chr> <chr>   <chr>   <chr> <chr>       
#> 1  2013 2013-01-01 05:00:00 EWR    IAH   N14228  UA      <NA>  <NA>        
#> 2  2013 2013-01-01 05:00:00 LGA    IAH   N24211  UA      <NA>  <NA>        
#> 3  2013 2013-01-01 05:00:00 JFK    MIA   N619AA  AA      <NA>  <NA>        
#> 4  2013 2013-01-01 05:00:00 JFK    BQN   N804JB  B6      <NA>  <NA>        
#> 5  2013 2013-01-01 06:00:00 LGA    ATL   N668DN  DL      <NA>  <NA>        
#> 6  2013 2013-01-01 05:00:00 EWR    ORD   N39463  UA      <NA>  <NA>        
#> # ℹ 336,770 more rows
#> # ℹ 5 more variables: model <chr>, engines <int>, seats <int>, …
```

此处产生大量缺失是因为连接键 `year` 的含义在两个数据框中不同。 `flights$year` 表示飞行年份，而 `planes$year` 表示飞机制造年份。因此我们希望排除`year`这个变量，仅以 `tailnum` 为键，可显式指定`join_by(tailnum)`来达到此效果：

``` r
flights2 |> 
  left_join(planes, join_by(tailnum))
#> # A tibble: 336,776 × 14
#>   year.x time_hour           origin dest  tailnum carrier year.y
#>    <int> <dttm>              <chr>  <chr> <chr>   <chr>    <int>
#> 1   2013 2013-01-01 05:00:00 EWR    IAH   N14228  UA        1999
#> 2   2013 2013-01-01 05:00:00 LGA    IAH   N24211  UA        1998
#> 3   2013 2013-01-01 05:00:00 JFK    MIA   N619AA  AA        1990
#> 4   2013 2013-01-01 05:00:00 JFK    BQN   N804JB  B6        2012
#> 5   2013 2013-01-01 06:00:00 LGA    ATL   N668DN  DL        1991
#> 6   2013 2013-01-01 05:00:00 EWR    ORD   N39463  UA        2012
#> # ℹ 336,770 more rows
#> # ℹ 7 more variables: type <chr>, manufacturer <chr>, model <chr>, …
```
…
