…
可以使用 `dplyr` 的语法对数据进行操作，然后用 `collect()` 函数触发计算并返回结果。例如，下面这段代码统计了每年的总借阅次数：

```R
seattle_csv |> 
  group_by(CheckoutYear) |> 
  summarise(Checkouts = sum(Checkouts)) |> 
  arrange(CheckoutYear) |> 
  collect()
#> # A tibble: 18 × 2
#>   CheckoutYear Checkouts
#>          <int>     <int>
#> 1         2005   3798685
#> 2         2006   6599318
#> 3         2007   7126627
#> 4         2008   8438486
#> 5         2009   9135167
#> 6         2010   8608966
#> # ℹ 12 more rows
```
…
转换耗时约 1 分钟，但后续操作将因此获得极大加速。

查看生成的文件结构：

```R
tibble(
  files = list.files(pq_path, recursive = TRUE),
  size_MB = file.size(file.path(pq_path, files)) / 1024^2
)
#> # A tibble: 18 × 2
#>   files                            size_MB
#>   <chr>                              <dbl>
#> 1 CheckoutYear=2005/part-0.parquet    109.
#> 2 CheckoutYear=2006/part-0.parquet    164.
#> 3 CheckoutYear=2007/part-0.parquet    178.
#> 4 CheckoutYear=2008/part-0.parquet    195.
#> 5 CheckoutYear=2009/part-0.parquet    214.
#> 6 CheckoutYear=2010/part-0.parquet    222.
#> # ℹ 12 more rows
```
…
随后调用 `collect()` 即可获取结果：

```R
query |> collect()
#> # A tibble: 58 × 3
#> # Groups:   CheckoutYear [5]
#>   CheckoutYear CheckoutMonth TotalCheckouts
#>          <int>         <int>          <int>
#> 1         2018             1         355101
#> 2         2018             2         309813
#> 3         2018             3         344487
#> 4         2018             4         330988
#> 5         2018             5         318049
#> 6         2018             6         341825
#> # ℹ 52 more rows
```
…
